com/mycompany/Edictos/dao/EntitiManager.class
com/mycompany/Edictos/business/UsuarioBusiness.class
com/mycompany/Edictos/filter/ApplicationFilter.class
com/mycompany/Edictos/controller/IndexController.class
com/mycompany/Edictos/dao/UsuarioDao.class
com/mycompany/Edictos/dao/Persistance.class
com/mycompany/Edictos/controller/InicioSesion.class
